^C:\USERS\ДМИТРИЙ\SOURCE\REPOS\C++ HOMEWORK 4\C++ HOMEWORK 4.CPP
C:\USERS\Дмитрий\SOURCE\REPOS\C++ HOMEWORK 4\C++ HOMEWORK 4\X64\DEBUG\VC143.PDB
C:\USERS\Дмитрий\SOURCE\REPOS\C++ HOMEWORK 4\C++ HOMEWORK 4\X64\DEBUG\VC143.IDB
C:\USERS\Дмитрий\SOURCE\REPOS\C++ HOMEWORK 4\C++ HOMEWORK 4\X64\DEBUG\C++ HOMEWORK 4.OBJ
